{
  "key": "atlassian-connect-spring-boot-sample-basic",
  "baseUrl": "${addon.base-url}",
  "name": "Atlassian Connect Spring Boot Basic Sample",
  "authentication": {
    "type": "jwt"
  },
  "lifecycle": {
    "installed": "/installed",
    "uninstalled": "/uninstalled"
  }
}
